Problem Set 4
…
Problem 4

Calculate correlations between total.cost and n.pubs for each institute. You will need to join the projects and project_io tables to link institute with total.cost and n.pubs. You will then need to use group_by and do from dplyr and tidy from broom to calculate correlations.

projects %>% 
  left_join(project_io, by = "project.num") %>% 
  select(institute, n.pubs, total.cost) %>% 
  group_by(institute) %>% 
  do(tidy(cor(.$total.cost, .$n.pubs, use = "complete"))) %>%
  rename(total.cost_n.pubs_cor=x)

#> Source: local data frame [25 x 2]
#> Groups: institute [25]
#> 
#>    institute total.cost_n.pubs_cor
#>       <fctr>                 <dbl>
#> 1         AA             0.6623385
#> 2         AG             0.6113984
#> 3         AI             0.5102040
#> 4         AR             0.4897399
#> 5         AT             0.6334686
#> 6         CA             0.5147985
#> 7         DA             0.5437862
#> 8         DC             0.6954540
#> 9         DE             0.4731841
#> 10        DK             0.4101026
#> # ... with 15 more rows
…
budget mechanism (e.g., RFA, PAR, etc.)

type of grant (e.g.R01, P01, R21, etc.).

publications %>% 
  inner_join(publinks, by = 'pmid') %>% 
  filter(rcr != 'NA') %>% 
  inner_join(projects, by = 'project.num') %>% 
  inner_join(project_io, by = 'project.num') %>% 
  select(activity, rcr, total.cost) %>% 
  group_by(activity) %>% 
  do(tidy(cor(.$rcr, .$total.cost, use = "complete"))) %>%
  rename(Grant.Type=activity, rcr_total.cost_cor=x)

#> Source: local data frame [154 x 2]
#> Groups: Grant.Type [154]
#> 
#>    Grant.Type rcr_total.cost_cor
#>        <fctr>              <dbl>
#> 1         C06       -0.002779651
#> 2         D43        0.063187963
#> 3         D71        0.365437353
#> 4         DP1       -0.089354738
#> 5         DP2        0.027687080
#> 6         DP3       -0.164573501
#> 7         DP4        0.351327455
#> 8         F05        0.138955800
#> 9         F06       -0.399965829
#> 10        F30       -0.057135736
#> # ... with 144 more rows
…
